\relax 
\providecommand\hyper@newdestlabel[2]{}
\@writefile{toc}{\contentsline {chapter}{\numberline {2}Architettura del Problema}{4}{chapter.2}}
\@writefile{lof}{\addvspace {10\p@ }}
\@writefile{lot}{\addvspace {10\p@ }}
\@writefile{toc}{\contentsline {section}{\numberline {2.1}Diagramma dei Casi d'Uso}{4}{section.2.1}}
\@writefile{toc}{\contentsline {section}{\numberline {2.2}Modello dei Dati}{4}{section.2.2}}
\@writefile{toc}{\contentsline {subsection}{\numberline {2.2.1}Entit\IeC {\`a}}{4}{subsection.2.2.1}}
\@writefile{lof}{\contentsline {figure}{\numberline {2.1}{\ignorespaces Modello dei dati del sistema OCA\relax }}{5}{figure.caption.2}}
\providecommand*\caption@xref[2]{\@setref\relax\@undefined{#1}}
\newlabel{fig:ModelloDati}{{2.1}{5}{Modello dei dati del sistema OCA\relax }{figure.caption.2}{}}
\@writefile{toc}{\contentsline {subsection}{\numberline {2.2.2}Associazioni tra Entit\IeC {\`a}}{7}{subsection.2.2.2}}
\@writefile{toc}{\contentsline {subsection}{\numberline {2.2.3}Generalizzazioni tra Entit\IeC {\`a}}{8}{subsection.2.2.3}}
\@writefile{toc}{\contentsline {subsection}{\numberline {2.2.4}Aggregazioni tra Entit\IeC {\`a}}{9}{subsection.2.2.4}}
\@writefile{toc}{\contentsline {section}{\numberline {2.3}Diagrammi delle Attivit\IeC {\`a}}{10}{section.2.3}}
\newlabel{DiagrammiAttivit\IeC {\`a}}{{2.3}{10}{Diagrammi delle Attività}{section.2.3}{}}
\@writefile{toc}{\contentsline {subsection}{\numberline {2.3.1}Gestione dell'Incidente}{10}{subsection.2.3.1}}
\@writefile{lof}{\contentsline {figure}{\numberline {2.2}{\ignorespaces Rilevamento dell'incidente\relax }}{11}{figure.caption.3}}
\newlabel{fig:RilevamentoIncidente}{{2.2}{11}{Rilevamento dell'incidente\relax }{figure.caption.3}{}}
\@writefile{lof}{\contentsline {figure}{\numberline {2.3}{\ignorespaces Attivazione della connessione telefonica tra operatore OPI ed assicurato\relax }}{11}{figure.caption.4}}
\newlabel{fig:AttivazioneConnessioneTelefonica}{{2.3}{11}{Attivazione della connessione telefonica tra operatore OPI ed assicurato\relax }{figure.caption.4}{}}
\@writefile{lof}{\contentsline {figure}{\numberline {2.4}{\ignorespaces Richiesta dell'indirizzo di un incidente\relax }}{12}{figure.caption.5}}
\newlabel{fig:RichiestaIndirizzoIncidente}{{2.4}{12}{Richiesta dell'indirizzo di un incidente\relax }{figure.caption.5}{}}
\@writefile{lof}{\contentsline {figure}{\numberline {2.5}{\ignorespaces Conversione delle coordinate geografiche in indirizzo stradale\relax }}{12}{figure.caption.6}}
\newlabel{fig:ConversioneCoordinateGeograficheIndirizzoStradale}{{2.5}{12}{Conversione delle coordinate geografiche in indirizzo stradale\relax }{figure.caption.6}{}}
\@writefile{toc}{\contentsline {subsection}{\numberline {2.3.2}Elaborazione dei Tragitti e dei Tronchi}{13}{subsection.2.3.2}}
\@writefile{lof}{\contentsline {figure}{\numberline {2.6}{\ignorespaces Divisione dei tragitti in tronchi\relax }}{13}{figure.caption.7}}
\newlabel{fig:DivisioneTragittiInTronchi}{{2.6}{13}{Divisione dei tragitti in tronchi\relax }{figure.caption.7}{}}
\@writefile{lof}{\contentsline {figure}{\numberline {2.7}{\ignorespaces Elaborazione dei tronchi\relax }}{14}{figure.caption.8}}
\newlabel{fig:ElaborazioneTronchi}{{2.7}{14}{Elaborazione dei tronchi\relax }{figure.caption.8}{}}
\@writefile{lof}{\contentsline {figure}{\numberline {2.8}{\ignorespaces Elaborazione di un tragitto\relax }}{14}{figure.caption.9}}
\newlabel{fig:ElaborazioneTragitto}{{2.8}{14}{Elaborazione di un tragitto\relax }{figure.caption.9}{}}
\@writefile{toc}{\contentsline {subsection}{\numberline {2.3.3}Visualizzazione delle Informazioni}{15}{subsection.2.3.3}}
\@writefile{lof}{\contentsline {figure}{\numberline {2.9}{\ignorespaces Visualizzazione delle informazioni di una polizza\relax }}{15}{figure.caption.10}}
\newlabel{fig:VisualizzazioneInformazioniPolizza}{{2.9}{15}{Visualizzazione delle informazioni di una polizza\relax }{figure.caption.10}{}}
\@writefile{lof}{\contentsline {figure}{\numberline {2.10}{\ignorespaces Visualizzazione delle informazioni di un assicurato e del livello di rischio\relax }}{16}{figure.caption.11}}
\newlabel{fig:VisualizzazioneDatiAssicuratoLivelloRischio}{{2.10}{16}{Visualizzazione delle informazioni di un assicurato e del livello di rischio\relax }{figure.caption.11}{}}
\@writefile{toc}{\contentsline {subsection}{\numberline {2.3.4}Calcolo delle Statistiche}{16}{subsection.2.3.4}}
\@writefile{lof}{\contentsline {figure}{\numberline {2.11}{\ignorespaces Calcolo del livello di rischio di un assicurato\relax }}{16}{figure.caption.12}}
\newlabel{fig:CalcoloLivelloRischio}{{2.11}{16}{Calcolo del livello di rischio di un assicurato\relax }{figure.caption.12}{}}
\@writefile{lof}{\contentsline {figure}{\numberline {2.12}{\ignorespaces Calcolo delle statistiche K, KP, V1, V2 e V3\relax }}{17}{figure.caption.13}}
\newlabel{fig:CalcoloStatisticheK_KP_V1_V2_V3}{{2.12}{17}{Calcolo delle statistiche K, KP, V1, V2 e V3\relax }{figure.caption.13}{}}
\@setckpt{2.architettura_del_problema}{
\setcounter{page}{18}
\setcounter{equation}{0}
\setcounter{enumi}{11}
\setcounter{enumii}{0}
\setcounter{enumiii}{0}
\setcounter{enumiv}{0}
\setcounter{footnote}{0}
\setcounter{mpfootnote}{0}
\setcounter{part}{0}
\setcounter{chapter}{2}
\setcounter{section}{3}
\setcounter{subsection}{4}
\setcounter{subsubsection}{0}
\setcounter{paragraph}{0}
\setcounter{subparagraph}{0}
\setcounter{figure}{12}
\setcounter{table}{0}
\setcounter{parentequation}{0}
\setcounter{ContinuedFloat}{0}
\setcounter{subfigure}{0}
\setcounter{lofdepth}{1}
\setcounter{subtable}{0}
\setcounter{lotdepth}{1}
\setcounter{Item}{18}
\setcounter{Hfootnote}{0}
\setcounter{bookmark@seq@number}{13}
\setcounter{float@type}{4}
\setcounter{nlinenum}{0}
\setcounter{section@level}{2}
}
