\relax 
\providecommand\hyper@newdestlabel[2]{}
\@writefile{toc}{\contentsline {chapter}{\numberline {3}Architettura Logica}{18}{chapter.3}}
\@writefile{lof}{\addvspace {10\p@ }}
\@writefile{lot}{\addvspace {10\p@ }}
\@writefile{toc}{\contentsline {section}{\numberline {3.1}Analisi Preliminare}{18}{section.3.1}}
\newlabel{AnalisiPreliminare_ArchitetturaLogica}{{3.1}{18}{Analisi Preliminare}{section.3.1}{}}
\@writefile{lot}{\contentsline {table}{\numberline {3.1}{\ignorespaces Valori assunti dalle attivit\IeC {\`a} per le dimensioni \textit  {astrazione}, \textit  {complessit\IeC {\`a}}, \textit  {frequenza} e \textit  {ritardo}\relax }}{20}{table.caption.15}}
\newlabel{tab:AttivitaComplessit\IeC {\`a}AstrazioneFrequenzaRitardo}{{3.1}{20}{Valori assunti dalle attività per le dimensioni \textit {astrazione}, \textit {complessità}, \textit {frequenza} e \textit {ritardo}\relax }{table.caption.15}{}}
\@writefile{toc}{\contentsline {section}{\numberline {3.2}Soluzione 1: Ottimizzata per Astrazione}{20}{section.3.2}}
\@writefile{lot}{\contentsline {table}{\numberline {3.2}{\ignorespaces Distribuzione delle attivit\IeC {\`a} nel partizionamento logico a cinque componenti - partizionamento per astrazione\relax }}{21}{table.caption.18}}
\newlabel{tab:DistribuzioneAttivita4ComponentiLogiche}{{3.2}{21}{Distribuzione delle attività nel partizionamento logico a cinque componenti - partizionamento per astrazione\relax }{table.caption.18}{}}
\@writefile{lof}{\contentsline {figure}{\numberline {3.1}{\ignorespaces Diagramma delle componenti logiche con soluzione ottimizzata per l'astrazione\relax }}{22}{figure.caption.19}}
\newlabel{fig:DiagrammaComponentiLogicheAstrazione_Intero}{{3.1}{22}{Diagramma delle componenti logiche con soluzione ottimizzata per l'astrazione\relax }{figure.caption.19}{}}
\@writefile{lot}{\contentsline {table}{\numberline {3.3}{\ignorespaces Footprint dell'astrazione per la soluzione con cinque componenti - partizionamento per astrazione\relax }}{23}{table.caption.20}}
\newlabel{tab:FootprintAstrazione_Soluzione4ComponentiLogiche}{{3.3}{23}{Footprint dell'astrazione per la soluzione con cinque componenti - partizionamento per astrazione\relax }{table.caption.20}{}}
\@writefile{lot}{\contentsline {table}{\numberline {3.4}{\ignorespaces Footprint della complessit\IeC {\`a} per la soluzione con cinque componenti - partizionamento per astrazione\relax }}{23}{table.caption.21}}
\newlabel{tab:FootprintComplessita_Soluzione4ComponentiLogiche}{{3.4}{23}{Footprint della complessità per la soluzione con cinque componenti - partizionamento per astrazione\relax }{table.caption.21}{}}
\@writefile{lot}{\contentsline {table}{\numberline {3.5}{\ignorespaces Footprint della frequenza per la soluzione con cinque componenti - partizionamento per astrazione\relax }}{23}{table.caption.22}}
\newlabel{tab:FootprintFrequenza_Soluzione4ComponentiLogiche}{{3.5}{23}{Footprint della frequenza per la soluzione con cinque componenti - partizionamento per astrazione\relax }{table.caption.22}{}}
\@writefile{lot}{\contentsline {table}{\numberline {3.6}{\ignorespaces Footprint del ritardo per la soluzione con cinque componenti - partizionamento per astrazione\relax }}{23}{table.caption.23}}
\newlabel{tab:FootprintRitardo_Soluzione4ComponentiLogiche}{{3.6}{23}{Footprint del ritardo per la soluzione con cinque componenti - partizionamento per astrazione\relax }{table.caption.23}{}}
\@writefile{lot}{\contentsline {table}{\numberline {3.7}{\ignorespaces Stime dei valori dell'interferenza per le dimensioni \textit  {extra-flows}, \textit  {intra-flows}, \textit  {condivisione} e \textit  {flussi di controllo} per la soluzione ottimizzata per l'astrazione.\relax }}{24}{table.caption.24}}
\newlabel{interferenza_astrazione}{{3.7}{24}{Stime dei valori dell'interferenza per le dimensioni \textit {extra-flows}, \textit {intra-flows}, \textit {condivisione} e \textit {flussi di controllo} per la soluzione ottimizzata per l'astrazione.\relax }{table.caption.24}{}}
\@writefile{toc}{\contentsline {section}{\numberline {3.3}Soluzione 2: Ottimizzata per Frequenza}{24}{section.3.3}}
\@writefile{lot}{\contentsline {table}{\numberline {3.8}{\ignorespaces Distribuzione delle attivit\IeC {\`a} nel partizionamento logico a sei componenti - partizionamento ottimizzato per la frequenza\relax }}{24}{table.caption.26}}
\newlabel{tab:DistribuzioneAttivita6ComponentiLogiche}{{3.8}{24}{Distribuzione delle attività nel partizionamento logico a sei componenti - partizionamento ottimizzato per la frequenza\relax }{table.caption.26}{}}
\@writefile{lof}{\contentsline {figure}{\numberline {3.2}{\ignorespaces Diagramma delle componenti logiche con soluzione ottimizzata per la frequenza\relax }}{25}{figure.caption.27}}
\newlabel{fig:DiagrammaComponentiLogicheFrequenza_Intero}{{3.2}{25}{Diagramma delle componenti logiche con soluzione ottimizzata per la frequenza\relax }{figure.caption.27}{}}
\@writefile{lot}{\contentsline {table}{\numberline {3.9}{\ignorespaces Footprint dell'astrazione per la soluzione con sei componenti logiche - partizionamento ottimizzato per la frequenza.\relax }}{26}{table.caption.28}}
\newlabel{tab:FootprintAstrazione_Soluzione6ComponentiLogiche}{{3.9}{26}{Footprint dell'astrazione per la soluzione con sei componenti logiche - partizionamento ottimizzato per la frequenza.\relax }{table.caption.28}{}}
\@writefile{lot}{\contentsline {table}{\numberline {3.10}{\ignorespaces Footprint della complessit\IeC {\`a} per la soluzione con sei componenti logiche - partizionamento ottimizzato per la frequenza.\relax }}{26}{table.caption.29}}
\newlabel{tab:FootprintComplessita_Soluzione6ComponentiLogiche}{{3.10}{26}{Footprint della complessità per la soluzione con sei componenti logiche - partizionamento ottimizzato per la frequenza.\relax }{table.caption.29}{}}
\@writefile{lot}{\contentsline {table}{\numberline {3.11}{\ignorespaces Footprint della frequenza per la soluzione con sei componenti logiche - partizionamento ottimizzato per la frequenza.\relax }}{26}{table.caption.30}}
\newlabel{tab:FootprintFrequenza_Soluzione6ComponentiLogiche}{{3.11}{26}{Footprint della frequenza per la soluzione con sei componenti logiche - partizionamento ottimizzato per la frequenza.\relax }{table.caption.30}{}}
\@writefile{lot}{\contentsline {table}{\numberline {3.12}{\ignorespaces Footprint del ritardo per la soluzione con sei componenti logiche - partizionamento ottimizzato per la frequenza.\relax }}{27}{table.caption.31}}
\newlabel{tab:FootprintRitardo_Soluzione6ComponentiLogiche}{{3.12}{27}{Footprint del ritardo per la soluzione con sei componenti logiche - partizionamento ottimizzato per la frequenza.\relax }{table.caption.31}{}}
\@writefile{lot}{\contentsline {table}{\numberline {3.13}{\ignorespaces Stime dei valori dell'interferenza per le dimensioni \textit  {extra-flows}, \textit  {intra-flows}, \textit  {condivisione} e \textit  {flussi di controllo} per la soluzione ottimizzata per la frequenza.\relax }}{27}{table.caption.32}}
\newlabel{interferenza_freq}{{3.13}{27}{Stime dei valori dell'interferenza per le dimensioni \textit {extra-flows}, \textit {intra-flows}, \textit {condivisione} e \textit {flussi di controllo} per la soluzione ottimizzata per la frequenza.\relax }{table.caption.32}{}}
\@writefile{toc}{\contentsline {section}{\numberline {3.4}Soluzione 3: Ottimizzata per Astrazione e per Frequenza}{27}{section.3.4}}
\newlabel{SezioneSoluzione3}{{3.4}{27}{Soluzione 3: Ottimizzata per Astrazione e per Frequenza}{section.3.4}{}}
\@writefile{lot}{\contentsline {table}{\numberline {3.14}{\ignorespaces Distribuzione delle attivit\IeC {\`a} nel partizionamento logico a sette componenti - ottimizzata per l'astrazione e la frequenza.\relax }}{28}{table.caption.35}}
\newlabel{tab:DistribuzioneAttivita7ComponentiLogiche}{{3.14}{28}{Distribuzione delle attività nel partizionamento logico a sette componenti - ottimizzata per l'astrazione e la frequenza.\relax }{table.caption.35}{}}
\@writefile{lot}{\contentsline {table}{\numberline {3.15}{\ignorespaces Footprint dell'astrazione per la soluzione con sette componenti - ottimizzata per l'astrazione e la frequenza.\relax }}{28}{table.caption.36}}
\newlabel{tab:FootprintAstrazione_Soluzione7ComponentiLogiche}{{3.15}{28}{Footprint dell'astrazione per la soluzione con sette componenti - ottimizzata per l'astrazione e la frequenza.\relax }{table.caption.36}{}}
\@writefile{lot}{\contentsline {table}{\numberline {3.16}{\ignorespaces Footprint della complessit\IeC {\`a} per la soluzione con sette componenti - ottimizzata per l'astrazione e la frequenza.\relax }}{28}{table.caption.37}}
\newlabel{tab:FootprintComplessita_Soluzione7ComponentiLogiche}{{3.16}{28}{Footprint della complessità per la soluzione con sette componenti - ottimizzata per l'astrazione e la frequenza.\relax }{table.caption.37}{}}
\@writefile{lof}{\contentsline {figure}{\numberline {3.3}{\ignorespaces Diagramma delle componenti logiche con soluzione ottimizzata per l'astrazione e per la frequenza\relax }}{29}{figure.caption.34}}
\newlabel{fig:DiagrammaComponentiLogicheAstrazioneFrequenza_Intero}{{3.3}{29}{Diagramma delle componenti logiche con soluzione ottimizzata per l'astrazione e per la frequenza\relax }{figure.caption.34}{}}
\@writefile{lot}{\contentsline {table}{\numberline {3.17}{\ignorespaces Footprint della frequenza per la soluzione con sette componenti - ottimizzata per l'astrazione e la frequenza.\relax }}{30}{table.caption.38}}
\newlabel{tab:FootprintFrequenza_Soluzione7ComponentiLogiche}{{3.17}{30}{Footprint della frequenza per la soluzione con sette componenti - ottimizzata per l'astrazione e la frequenza.\relax }{table.caption.38}{}}
\@writefile{lot}{\contentsline {table}{\numberline {3.18}{\ignorespaces Footprint del ritardo per la soluzione con sette componenti - ottimizzata per l'astrazione e la frequenza.\relax }}{30}{table.caption.39}}
\newlabel{tab:FootprintRitardo_Soluzione7ComponentiLogiche}{{3.18}{30}{Footprint del ritardo per la soluzione con sette componenti - ottimizzata per l'astrazione e la frequenza.\relax }{table.caption.39}{}}
\@writefile{lot}{\contentsline {table}{\numberline {3.19}{\ignorespaces Stime dei valori dell'interferenza per le dimensioni \textit  {extra-flows}, \textit  {intra-flows}, \textit  {condivisione} e \textit  {flussi di controllo} per la soluzione ottimizzata per la frequenza.\relax }}{30}{table.caption.40}}
\newlabel{interferenza_freq_astr}{{3.19}{30}{Stime dei valori dell'interferenza per le dimensioni \textit {extra-flows}, \textit {intra-flows}, \textit {condivisione} e \textit {flussi di controllo} per la soluzione ottimizzata per la frequenza.\relax }{table.caption.40}{}}
\@writefile{toc}{\contentsline {section}{\numberline {3.5}Confronto tra le Soluzioni Proposte}{31}{section.3.5}}
\@writefile{lof}{\contentsline {figure}{\numberline {3.4}{\ignorespaces Footprint finale della soluzione 1 (cinque componenti logiche) - partizionamento ottimizzato per l'astrazione\relax }}{31}{figure.caption.43}}
\newlabel{fig:FootprintSoluzione1}{{3.4}{31}{Footprint finale della soluzione 1 (cinque componenti logiche) - partizionamento ottimizzato per l'astrazione\relax }{figure.caption.43}{}}
\@writefile{lof}{\contentsline {figure}{\numberline {3.5}{\ignorespaces Footprint finale della soluzione 2 (sei componenti logiche) - partizionamento ottimizzato per la frequenza\relax }}{31}{figure.caption.44}}
\newlabel{fig:FootprintSoluzione2}{{3.5}{31}{Footprint finale della soluzione 2 (sei componenti logiche) - partizionamento ottimizzato per la frequenza\relax }{figure.caption.44}{}}
\@writefile{lof}{\contentsline {figure}{\numberline {3.6}{\ignorespaces Footprint finale della soluzione 3 (sette componenti logiche) - partizionamento ottimizzato per l'astrazione e per la frequenza\relax }}{32}{figure.caption.45}}
\newlabel{fig:FootprintSoluzione3}{{3.6}{32}{Footprint finale della soluzione 3 (sette componenti logiche) - partizionamento ottimizzato per l'astrazione e per la frequenza\relax }{figure.caption.45}{}}
\@writefile{lof}{\contentsline {figure}{\numberline {3.7}{\ignorespaces Comparazione tra i footprint delle tre soluzioni proposte\relax }}{32}{figure.caption.46}}
\newlabel{fig:ComparazioneFootprintSoluzione1234}{{3.7}{32}{Comparazione tra i footprint delle tre soluzioni proposte\relax }{figure.caption.46}{}}
\@writefile{lot}{\contentsline {table}{\numberline {3.20}{\ignorespaces Tabella riassuntiva del footprint per le tre soluzioni\relax }}{33}{table.caption.47}}
\newlabel{tab_riassuntiva_footprint}{{3.20}{33}{Tabella riassuntiva del footprint per le tre soluzioni\relax }{table.caption.47}{}}
\@setckpt{3.architettura_logica}{
\setcounter{page}{34}
\setcounter{equation}{1}
\setcounter{enumi}{7}
\setcounter{enumii}{0}
\setcounter{enumiii}{0}
\setcounter{enumiv}{0}
\setcounter{footnote}{0}
\setcounter{mpfootnote}{0}
\setcounter{part}{0}
\setcounter{chapter}{3}
\setcounter{section}{5}
\setcounter{subsection}{0}
\setcounter{subsubsection}{0}
\setcounter{paragraph}{0}
\setcounter{subparagraph}{0}
\setcounter{figure}{7}
\setcounter{table}{20}
\setcounter{parentequation}{0}
\setcounter{ContinuedFloat}{0}
\setcounter{subfigure}{0}
\setcounter{lofdepth}{1}
\setcounter{subtable}{0}
\setcounter{lotdepth}{1}
\setcounter{Item}{39}
\setcounter{Hfootnote}{0}
\setcounter{bookmark@seq@number}{19}
\setcounter{float@type}{4}
\setcounter{nlinenum}{0}
\setcounter{section@level}{1}
}
