\relax 
\providecommand\hyper@newdestlabel[2]{}
\@writefile{toc}{\contentsline {chapter}{\numberline {4}Architettura Concreta}{34}{chapter.4}}
\@writefile{lof}{\addvspace {10\p@ }}
\@writefile{lot}{\addvspace {10\p@ }}
\@writefile{toc}{\contentsline {section}{\numberline {4.1}Diagrammi delle Componenti Concrete}{34}{section.4.1}}
\@writefile{lof}{\contentsline {figure}{\numberline {4.1}{\ignorespaces Diagramma delle componenti concrete del sistema OCA\relax }}{34}{figure.caption.48}}
\newlabel{fig:DiagrammaComponentiConcrete}{{4.1}{34}{Diagramma delle componenti concrete del sistema OCA\relax }{figure.caption.48}{}}
\@writefile{toc}{\contentsline {section}{\numberline {4.2}Diagrammi di Sequenza}{36}{section.4.2}}
\@writefile{toc}{\contentsline {subsection}{\numberline {4.2.1}Rilevazione e gestione del sinistro}{36}{subsection.4.2.1}}
\@writefile{lof}{\contentsline {figure}{\numberline {4.2}{\ignorespaces Rilevazione dell'incidente\relax }}{36}{figure.caption.49}}
\newlabel{fig:RilevazioneIncidente}{{4.2}{36}{Rilevazione dell'incidente\relax }{figure.caption.49}{}}
\@writefile{lof}{\contentsline {figure}{\numberline {4.3}{\ignorespaces Elaborazione dell'incidente e notifica all'operatore OPI\relax }}{37}{figure.caption.50}}
\newlabel{fig:ElaborazioneIncidenteNotificaOperatore}{{4.3}{37}{Elaborazione dell'incidente e notifica all'operatore OPI\relax }{figure.caption.50}{}}
\@writefile{lof}{\contentsline {figure}{\numberline {4.4}{\ignorespaces Assistenza richiesta dall'assicurato all'operatore OPI\relax }}{37}{figure.caption.51}}
\newlabel{fig:AssistenzaRichiestaDaAssicuratoAOperatoreOPI}{{4.4}{37}{Assistenza richiesta dall'assicurato all'operatore OPI\relax }{figure.caption.51}{}}
\@writefile{toc}{\contentsline {subsection}{\numberline {4.2.2}Calcolo statistiche e livello di rischio}{38}{subsection.4.2.2}}
\@writefile{lof}{\contentsline {figure}{\numberline {4.5}{\ignorespaces Elaborazione di un tragitto e dei tronchi\relax }}{38}{figure.caption.52}}
\newlabel{fig:ElaborazioneTragittiTronchi}{{4.5}{38}{Elaborazione di un tragitto e dei tronchi\relax }{figure.caption.52}{}}
\@writefile{lof}{\contentsline {figure}{\numberline {4.6}{\ignorespaces Calcolo del livello di rischio di un assicurato\relax }}{39}{figure.caption.53}}
\newlabel{fig:CalcoloLivelloRischioAssicurato}{{4.6}{39}{Calcolo del livello di rischio di un assicurato\relax }{figure.caption.53}{}}
\@writefile{toc}{\contentsline {subsection}{\numberline {4.2.3}Visualizzazioni}{40}{subsection.4.2.3}}
\@writefile{lof}{\contentsline {figure}{\numberline {4.7}{\ignorespaces Visualizzazione delle informazioni associate ad una polizza di un assicurato\relax }}{40}{figure.caption.54}}
\newlabel{figseq:VisualizzazioneInformazioniPolizza}{{4.7}{40}{Visualizzazione delle informazioni associate ad una polizza di un assicurato\relax }{figure.caption.54}{}}
\@writefile{lof}{\contentsline {figure}{\numberline {4.8}{\ignorespaces Visualizzazione delle informazioni associate ad un assicurato\relax }}{41}{figure.caption.55}}
\newlabel{fig:VisualizzazioneInformazioniAssicurato}{{4.8}{41}{Visualizzazione delle informazioni associate ad un assicurato\relax }{figure.caption.55}{}}
\@setckpt{4.architettura_concreta}{
\setcounter{page}{42}
\setcounter{equation}{0}
\setcounter{enumi}{7}
\setcounter{enumii}{0}
\setcounter{enumiii}{0}
\setcounter{enumiv}{0}
\setcounter{footnote}{0}
\setcounter{mpfootnote}{0}
\setcounter{part}{0}
\setcounter{chapter}{4}
\setcounter{section}{2}
\setcounter{subsection}{3}
\setcounter{subsubsection}{0}
\setcounter{paragraph}{0}
\setcounter{subparagraph}{0}
\setcounter{figure}{8}
\setcounter{table}{0}
\setcounter{parentequation}{0}
\setcounter{ContinuedFloat}{0}
\setcounter{subfigure}{0}
\setcounter{lofdepth}{1}
\setcounter{subtable}{0}
\setcounter{lotdepth}{1}
\setcounter{Item}{39}
\setcounter{Hfootnote}{0}
\setcounter{bookmark@seq@number}{25}
\setcounter{float@type}{4}
\setcounter{nlinenum}{0}
\setcounter{section@level}{2}
}
