\relax 
\providecommand\hyper@newdestlabel[2]{}
\@writefile{toc}{\contentsline {chapter}{\numberline {4}Scelte Tecnologiche}{11}{chapter.4}}
\@writefile{lof}{\addvspace {10\p@ }}
\@writefile{lot}{\addvspace {10\p@ }}
\@writefile{toc}{\contentsline {section}{\numberline {4.1}Librerie Utilizzate}{11}{section.4.1}}
\@writefile{toc}{\contentsline {subsection}{\numberline {4.1.1}OpenStreetMap e Nominatim}{11}{subsection.4.1.1}}
\@writefile{toc}{\contentsline {subsection}{\numberline {4.1.2}JSoup}{12}{subsection.4.1.2}}
\@writefile{toc}{\contentsline {subsection}{\numberline {4.1.3}Google Maps API}{13}{subsection.4.1.3}}
\@writefile{toc}{\contentsline {subsection}{\numberline {4.1.4}Oracle MySQL e JDBC}{13}{subsection.4.1.4}}
\@writefile{toc}{\contentsline {subsection}{\numberline {4.1.5}Java AWT e Swing}{13}{subsection.4.1.5}}
\@setckpt{4.sceltetecnologiche}{
\setcounter{page}{14}
\setcounter{equation}{0}
\setcounter{enumi}{2}
\setcounter{enumii}{0}
\setcounter{enumiii}{0}
\setcounter{enumiv}{0}
\setcounter{footnote}{9}
\setcounter{mpfootnote}{0}
\setcounter{part}{0}
\setcounter{chapter}{4}
\setcounter{section}{1}
\setcounter{subsection}{5}
\setcounter{subsubsection}{0}
\setcounter{paragraph}{0}
\setcounter{subparagraph}{0}
\setcounter{figure}{0}
\setcounter{table}{0}
\setcounter{parentequation}{0}
\setcounter{ContinuedFloat}{0}
\setcounter{subfigure}{0}
\setcounter{lofdepth}{1}
\setcounter{subtable}{0}
\setcounter{lotdepth}{1}
\setcounter{Item}{24}
\setcounter{Hfootnote}{10}
\setcounter{bookmark@seq@number}{15}
\setcounter{float@type}{8}
\setcounter{nlinenum}{0}
\setcounter{lstnumber}{1}
\setcounter{section@level}{2}
\setcounter{lstlisting}{0}
}
