#04122016_175443,10D,00
0,ACC,-913,18,528
0,GYR,-9,-22,17
111,104,0
0,ACC,-922,6,548
0,GYR,1,-27,17
30,111,16
0,ACC,-922,-9,513
0,GYR,-4,-36,24
29,10F,32
0,ACC,-927,14,573
0,GYR,-14,-11,16
8,TIM,17544300
0,DTE,041216
0,LAT,45551711
0,LNG,9334604
0,ALT,16200
0,SPD,0.0
0,SAT,5
0,ACC,-913,18,528
0,GYR,-9,-22,17
111,104,0
0,ACC,-922,6,548
0,GYR,1,-27,17
30,111,16
0,ACC,-922,-9,513
0,GYR,-4,-36,24
29,10F,32
0,ACC,-927,14,573
0,GYR,-14,-11,16
8,TIM,17544400
0,DTE,041216
0,LAT,45552025
0,LNG,9334616
0,ALT,16200
0,SPD,4.5
0,SAT,5
0,ACC,-913,18,528
0,GYR,-9,-22,17
111,104,0
0,ACC,-922,6,548
0,GYR,1,-27,17
30,111,16
0,ACC,-922,-9,513
0,GYR,-4,-36,24
29,10F,32
0,ACC,-927,14,573
0,GYR,-14,-11,16
8,TIM,17544600
0,DTE,041216
0,LAT,45552008
0,LNG,9334622
0,ALT,16200
0,SPD,0.0
0,SAT,5
0,ACC,-913,18,528
0,GYR,-9,-22,17
111,104,0
0,ACC,-922,6,548
0,GYR,1,-27,17
30,111,16
0,ACC,-922,-9,513
0,GYR,-4,-36,24
29,10F,32
0,ACC,-927,14,573
0,GYR,-14,-11,16
8,TIM,17544800
0,DTE,041216
0,LAT,45552018
0,LNG,9334618
0,ALT,16200
0,SPD,0.0
0,SAT,5
0,ACC,-913,18,528
0,GYR,-9,-22,17
111,104,0
0,ACC,-922,6,548
0,GYR,1,-27,17
30,111,16
0,ACC,-922,-9,513
0,GYR,-4,-36,24
29,10F,32
0,ACC,-927,14,573
0,GYR,-14,-11,16
8,TIM,17545400
0,DTE,041216
0,LAT,45552020
0,LNG,9334636
0,ALT,16200
0,SPD,0.0
0,SAT,5
0,ACC,-913,18,528
0,GYR,-9,-22,17
111,104,0
0,ACC,-922,6,548
0,GYR,1,-27,17
30,111,16
0,ACC,-922,-9,513
0,GYR,-4,-36,24
29,10F,32
0,ACC,-927,14,573
0,GYR,-14,-11,16
8,TIM,17550800
0,DTE,041216
0,LAT,45552031
0,LNG,9334609
0,ALT,16200
0,SPD,3.13
0,SAT,5
0,ACC,-913,18,528
0,GYR,-9,-22,17
111,104,0
0,ACC,-922,6,548
0,GYR,1,-27,17
30,111,16
0,ACC,-922,-9,513
0,GYR,-4,-36,24
29,10F,32
0,ACC,-927,14,573
0,GYR,-14,-11,16
8,TIM,17551000
0,DTE,041216
0,LAT,45552017
0,LNG,9334601
0,ALT,16200
0,SPD,4.18
0,SAT,5
0,ACC,-913,18,528
0,GYR,-9,-22,17
111,104,0
0,ACC,-922,6,548
0,GYR,1,-27,17
30,111,16
0,ACC,-922,-9,513
0,GYR,-4,-36,24
29,10F,32
0,ACC,-927,14,573
0,GYR,-14,-11,16
8,TIM,17551200
0,DTE,041216
0,LAT,45551962
0,LNG,9334592
0,ALT,16200
0,SPD,9.9
0,SAT,5
0,ACC,-913,18,528
0,GYR,-9,-22,17
111,104,0
0,ACC,-922,6,548
0,GYR,1,-27,17
30,111,16
0,ACC,-922,-9,513
0,GYR,-4,-36,24
29,10F,32
0,ACC,-927,14,573
0,GYR,-14,-11,16
8,TIM,17551400
0,DTE,041216
0,LAT,45551870
0,LNG,9334560
0,ALT,16200
0,SPD,16.24
0,SAT,5
0,ACC,-913,18,528
0,GYR,-9,-22,17
111,104,0
0,ACC,-922,6,548
0,GYR,1,-27,17
30,111,16
0,ACC,-922,-9,513
0,GYR,-4,-36,24
29,10F,32
0,ACC,-927,14,573
0,GYR,-14,-11,16
8,TIM,17551600
0,DTE,041216
0,LAT,45551762
0,LNG,9334524
0,ALT,16200
0,SPD,22.97
0,SAT,5
0,ACC,-913,18,528
0,GYR,-9,-22,17
111,104,0
0,ACC,-922,6,548
0,GYR,1,-27,17
30,111,16
0,ACC,-922,-9,513
0,GYR,-4,-36,24
29,10F,32
0,ACC,-927,14,573
0,GYR,-14,-11,16
8,TIM,17551800
0,DTE,041216
0,LAT,45551632
0,LNG,9334511
0,ALT,16200
0,SPD,24.73
0,SAT,5
0,ACC,-913,18,528
0,GYR,-9,-22,17
111,104,0
0,ACC,-922,6,548
0,GYR,1,-27,17
30,111,16
0,ACC,-922,-9,513
0,GYR,-4,-36,24
29,10F,32
0,ACC,-927,14,573
0,GYR,-14,-11,16
8,TIM,17552000
0,DTE,041216
0,LAT,45551502
0,LNG,9334496
0,ALT,16200
0,SPD,26.82
0,SAT,5
0,ACC,-913,18,528
0,GYR,-9,-22,17
111,104,0
0,ACC,-922,6,548
0,GYR,1,-27,17
30,111,16
0,ACC,-922,-9,513
0,GYR,-4,-36,24
29,10F,32
0,ACC,-927,14,573
0,GYR,-14,-11,16
8,TIM,17552200
0,DTE,041216
0,LAT,45551371
0,LNG,9334482
0,ALT,16200
0,SPD,25.78
0,SAT,5
0,ACC,-913,18,528
0,GYR,-9,-22,17
111,104,0
0,ACC,-922,6,548
0,GYR,1,-27,17
30,111,16
0,ACC,-922,-9,513
0,GYR,-4,-36,24
29,10F,32
0,ACC,-927,14,573
0,GYR,-14,-11,16
8,TIM,17552400
0,DTE,041216
0,LAT,45551252
0,LNG,9334454
0,ALT,16200
0,SPD,22.25
0,SAT,5
0,ACC,-913,18,528
0,GYR,-9,-22,17
111,104,0
0,ACC,-922,6,548
0,GYR,1,-27,17
30,111,16
0,ACC,-922,-9,513
0,GYR,-4,-36,24
29,10F,32
0,ACC,-927,14,573
0,GYR,-14,-11,16
8,TIM,17552600
0,DTE,041216
0,LAT,45551178
0,LNG,9334507
0,ALT,16200
0,SPD,16.67
0,SAT,5
0,ACC,-913,18,528
0,GYR,-9,-22,17
111,104,0
0,ACC,-922,6,548
0,GYR,1,-27,17
30,111,16
0,ACC,-922,-9,513
0,GYR,-4,-36,24
29,10F,32
0,ACC,-927,14,573
0,GYR,-14,-11,16
8,TIM,17552800
0,DTE,041216
0,LAT,45551177
0,LNG,9334628
0,ALT,16200
0,SPD,19.8
0,SAT,5
0,ACC,-913,18,528
0,GYR,-9,-22,17
111,104,0
0,ACC,-922,6,548
0,GYR,1,-27,17
30,111,16
0,ACC,-922,-9,513
0,GYR,-4,-36,24
29,10F,32
0,ACC,-927,14,573
0,GYR,-14,-11,16
8,TIM,17553000
0,DTE,041216
0,LAT,45551197
0,LNG,9334803
0,ALT,16200
0,SPD,25.38
0,SAT,5
0,ACC,-913,18,528
0,GYR,-9,-22,17
111,104,0
0,ACC,-922,6,548
0,GYR,1,-27,17
30,111,16
0,ACC,-922,-9,513
0,GYR,-4,-36,24
29,10F,32
0,ACC,-927,14,573
0,GYR,-14,-11,16
8,TIM,17553200
0,DTE,041216
0,LAT,45551185
0,LNG,9335003
0,ALT,16200
0,SPD,29.05
0,SAT,5
0,ACC,-913,18,528
0,GYR,-9,-22,17
111,104,0
0,ACC,-922,6,548
0,GYR,1,-27,17
30,111,16
0,ACC,-922,-9,513
0,GYR,-4,-36,24
29,10F,32
0,ACC,-927,14,573
0,GYR,-14,-11,16
8,TIM,17553400
0,DTE,041216
0,LAT,45551188
0,LNG,9335194
0,ALT,16200
0,SPD,26.14
0,SAT,5
0,ACC,-913,18,528
0,GYR,-9,-22,17
111,104,0
0,ACC,-922,6,548
0,GYR,1,-27,17
30,111,16
0,ACC,-922,-9,513
0,GYR,-4,-36,24
29,10F,32
0,ACC,-927,14,573
0,GYR,-14,-11,16
8,TIM,17553600
0,DTE,041216
0,LAT,45551165
0,LNG,9335344
0,ALT,16200
0,SPD,20.2
0,SAT,5
0,ACC,-913,18,528
0,GYR,-9,-22,17
111,104,0
0,ACC,-922,6,548
0,GYR,1,-27,17
30,111,16
0,ACC,-922,-9,513
0,GYR,-4,-36,24
29,10F,32
0,ACC,-927,14,573
0,GYR,-14,-11,16
8,TIM,17553800
0,DTE,041216
0,LAT,45551076
0,LNG,9335389
0,ALT,16200
0,SPD,19.33
0,SAT,5
0,ACC,-913,18,528
0,GYR,-9,-22,17
111,104,0
0,ACC,-922,6,548
0,GYR,1,-27,17
30,111,16
0,ACC,-922,-9,513
0,GYR,-4,-36,24
29,10F,32
0,ACC,-927,14,573
0,GYR,-14,-11,16
8,TIM,17554000
0,DTE,041216
0,LAT,45550943
0,LNG,9335374
0,ALT,16200
0,SPD,26.39
0,SAT,5
0,ACC,-913,18,528
0,GYR,-9,-22,17
111,104,0
0,ACC,-922,6,548
0,GYR,1,-27,17
30,111,16
0,ACC,-922,-9,513
0,GYR,-4,-36,24
29,10F,32
0,ACC,-927,14,573
0,GYR,-14,-11,16
8,TIM,17554200
0,DTE,041216
0,LAT,45550808
0,LNG,9335363
0,ALT,16200
0,SPD,25.34
0,SAT,5
0,ACC,-913,18,528
0,GYR,-9,-22,17
111,104,0
0,ACC,-922,6,548
0,GYR,1,-27,17
30,111,16
0,ACC,-922,-9,513
0,GYR,-4,-36,24
29,10F,32
0,ACC,-927,14,573
0,GYR,-14,-11,16
8,TIM,17554400
0,DTE,041216
0,LAT,45550672
0,LNG,9335367
0,ALT,16200
0,SPD,24.62
0,SAT,5
0,ACC,-913,18,528
0,GYR,-9,-22,17
111,104,0
0,ACC,-922,6,548
0,GYR,1,-27,17
30,111,16
0,ACC,-922,-9,513
0,GYR,-4,-36,24
29,10F,32
0,ACC,-927,14,573
0,GYR,-14,-11,16
8,TIM,17554600
0,DTE,041216
0,LAT,45550513
0,LNG,9335358
0,ALT,16200
0,SPD,31.68
0,SAT,5
0,ACC,-913,18,528
0,GYR,-9,-22,17
111,104,0
0,ACC,-922,6,548
0,GYR,1,-27,17
30,111,16
0,ACC,-922,-9,513
0,GYR,-4,-36,24
29,10F,32
0,ACC,-927,14,573
0,GYR,-14,-11,16
8,TIM,17554800
0,DTE,041216
0,LAT,45550338
0,LNG,9335358
0,ALT,16200
0,SPD,34.85
0,SAT,5
0,ACC,-913,18,528
0,GYR,-9,-22,17
111,104,0
0,ACC,-922,6,548
0,GYR,1,-27,17
30,111,16
0,ACC,-922,-9,513
0,GYR,-4,-36,24
29,10F,32
0,ACC,-927,14,573
0,GYR,-14,-11,16
8,TIM,17555000
0,DTE,041216
0,LAT,45550150
0,LNG,9335356
0,ALT,16200
0,SPD,37.37
0,SAT,5
0,ACC,-913,18,528
0,GYR,-9,-22,17
111,104,0
0,ACC,-922,6,548
0,GYR,1,-27,17
30,111,16
0,ACC,-922,-9,513
0,GYR,-4,-36,24
29,10F,32
0,ACC,-927,14,573
0,GYR,-14,-11,16
8,TIM,17555200
0,DTE,041216
0,LAT,45549958
0,LNG,9335360
0,ALT,16200
0,SPD,36.76
0,SAT,5
0,ACC,-913,18,528
0,GYR,-9,-22,17
111,104,0
0,ACC,-922,6,548
0,GYR,1,-27,17
30,111,16
0,ACC,-922,-9,513
0,GYR,-4,-36,24
29,10F,32
0,ACC,-927,14,573
0,GYR,-14,-11,16
8,TIM,17555400
0,DTE,041216
0,LAT,45549769
0,LNG,9335356
0,ALT,16200
0,SPD,37.04
0,SAT,5
0,ACC,-913,18,528
0,GYR,-9,-22,17
111,104,0
0,ACC,-922,6,548
0,GYR,1,-27,17
30,111,16
0,ACC,-922,-9,513
0,GYR,-4,-36,24
29,10F,32
0,ACC,-927,14,573
0,GYR,-14,-11,16
8,TIM,17555600
0,DTE,041216
0,LAT,45549589
0,LNG,9335368
0,ALT,16200
0,SPD,37.15
0,SAT,5
0,ACC,-913,18,528
0,GYR,-9,-22,17
111,104,0
0,ACC,-922,6,548
0,GYR,1,-27,17
30,111,16
0,ACC,-922,-9,513
0,GYR,-4,-36,24
29,10F,32
0,ACC,-927,14,573
0,GYR,-14,-11,16
8,TIM,17555800
0,DTE,041216
0,LAT,45549410
0,LNG,9335376
0,ALT,16200
0,SPD,35.1
0,SAT,5
0,ACC,-913,18,528
0,GYR,-9,-22,17
111,104,0
0,ACC,-922,6,548
0,GYR,1,-27,17
30,111,16
0,ACC,-922,-9,513
0,GYR,-4,-36,24
29,10F,32
0,ACC,-927,14,573
0,GYR,-14,-11,16
8,TIM,17560000
0,DTE,041216
0,LAT,45549219
0,LNG,9335354
0,ALT,16200
0,SPD,34.63
0,SAT,5
0,ACC,-913,18,528
0,GYR,-9,-22,17
111,104,0
0,ACC,-922,6,548
0,GYR,1,-27,17
30,111,16
0,ACC,-922,-9,513
0,GYR,-4,-36,24
29,10F,32
0,ACC,-927,14,573
0,GYR,-14,-11,16
8,TIM,17560200
0,DTE,041216
0,LAT,45549065
0,LNG,9335359
0,ALT,16200
0,SPD,29.23
0,SAT,5
0,ACC,-913,18,528
0,GYR,-9,-22,17
111,104,0
0,ACC,-922,6,548
0,GYR,1,-27,17
30,111,16
0,ACC,-922,-9,513
0,GYR,-4,-36,24
29,10F,32
0,ACC,-927,14,573
0,GYR,-14,-11,16
8,TIM,17560400
0,DTE,041216
0,LAT,45548994
0,LNG,9335336
0,ALT,16200
0,SPD,17.86
0,SAT,5
0,ACC,-913,18,528
0,GYR,-9,-22,17
111,104,0
0,ACC,-922,6,548
0,GYR,1,-27,17
30,111,16
0,ACC,-922,-9,513
0,GYR,-4,-36,24
29,10F,32
0,ACC,-927,14,573
0,GYR,-14,-11,16
8,TIM,17560600
0,DTE,041216
0,LAT,45548928
0,LNG,9335344
0,ALT,16200
0,SPD,11.52
0,SAT,5
0,ACC,-913,18,528
0,GYR,-9,-22,17
111,104,0
0,ACC,-922,6,548
0,GYR,1,-27,17
30,111,16
0,ACC,-922,-9,513
0,GYR,-4,-36,24
29,10F,32
0,ACC,-927,14,573
0,GYR,-14,-11,16
8,TIM,17560800
0,DTE,041216
0,LAT,45548881
0,LNG,9335359
0,ALT,16200
0,SPD,11.45
0,SAT,5
0,ACC,-913,18,528
0,GYR,-9,-22,17
111,104,0
0,ACC,-922,6,548
0,GYR,1,-27,17
30,111,16
0,ACC,-922,-9,513
0,GYR,-4,-36,24
29,10F,32
0,ACC,-927,14,573
0,GYR,-14,-11,16
8,TIM,17561000
0,DTE,041216
0,LAT,45548823
0,LNG,9335358
0,ALT,16200
0,SPD,12.85
0,SAT,5
0,ACC,-913,18,528
0,GYR,-9,-22,17
111,104,0
0,ACC,-922,6,548
0,GYR,1,-27,17
30,111,16
0,ACC,-922,-9,513
0,GYR,-4,-36,24
29,10F,32
0,ACC,-927,14,573
0,GYR,-14,-11,16
8,TIM,17561200
0,DTE,041216
0,LAT,45548770
0,LNG,9335344
0,ALT,16200
0,SPD,10.44
0,SAT,5
0,ACC,-913,18,528
0,GYR,-9,-22,17
111,104,0
0,ACC,-922,6,548
0,GYR,1,-27,17
30,111,16
0,ACC,-922,-9,513
0,GYR,-4,-36,24
29,10F,32
0,ACC,-927,14,573
0,GYR,-14,-11,16
8,TIM,17561400
0,DTE,041216
0,LAT,45548721
0,LNG,9335295
0,ALT,16200
0,SPD,12.56
0,SAT,5
0,ACC,-913,18,528
0,GYR,-9,-22,17
111,104,0
0,ACC,-922,6,548
0,GYR,1,-27,17
30,111,16
0,ACC,-922,-9,513
0,GYR,-4,-36,24
29,10F,32
0,ACC,-927,14,573
0,GYR,-14,-11,16
8,TIM,17561600
0,DTE,041216
0,LAT,45548667
0,LNG,9335214
0,ALT,16200
0,SPD,16.63
0,SAT,5
0,ACC,-913,18,528
0,GYR,-9,-22,17
111,104,0
0,ACC,-922,6,548
0,GYR,1,-27,17
30,111,16
0,ACC,-922,-9,513
0,GYR,-4,-36,24
29,10F,32
0,ACC,-927,14,573
0,GYR,-14,-11,16
8,TIM,17561800
0,DTE,041216
0,LAT,45548608
0,LNG,9335130
0,ALT,16200
0,SPD,17.53
0,SAT,5
0,ACC,-913,18,528
0,GYR,-9,-22,17
111,104,0
0,ACC,-922,6,548
0,GYR,1,-27,17
30,111,16
0,ACC,-922,-9,513
0,GYR,-4,-36,24
29,10F,32
0,ACC,-927,14,573
0,GYR,-14,-11,16
8,TIM,17562000
0,DTE,041216
0,LAT,45548518
0,LNG,9335137
0,ALT,16200
0,SPD,20.45
0,SAT,5
0,ACC,-913,18,528
0,GYR,-9,-22,17
111,104,0
0,ACC,-922,6,548
0,GYR,1,-27,17
30,111,16
0,ACC,-922,-9,513
0,GYR,-4,-36,24
29,10F,32
0,ACC,-927,14,573
0,GYR,-14,-11,16
8,TIM,17562200
0,DTE,041216
0,LAT,45548410
0,LNG,9335248
0,ALT,16200
0,SPD,28.04
0,SAT,5
0,ACC,-913,18,528
0,GYR,-9,-22,17
111,104,0
0,ACC,-922,6,548
0,GYR,1,-27,17
30,111,16
0,ACC,-922,-9,513
0,GYR,-4,-36,24
29,10F,32
0,ACC,-927,14,573
0,GYR,-14,-11,16
8,TIM,17562400
0,DTE,041216
0,LAT,45548275
0,LNG,9335318
0,ALT,16200
0,SPD,28.58
0,SAT,5
0,ACC,-913,18,528
0,GYR,-9,-22,17
111,104,0
0,ACC,-922,6,548
0,GYR,1,-27,17
30,111,16
0,ACC,-922,-9,513
0,GYR,-4,-36,24
29,10F,32
0,ACC,-927,14,573
0,GYR,-14,-11,16
8,TIM,17562600
0,DTE,041216
0,LAT,45548124
0,LNG,9335318
0,ALT,16200
0,SPD,30.46
0,SAT,5
0,ACC,-913,18,528
0,GYR,-9,-22,17
111,104,0
0,ACC,-922,6,548
0,GYR,1,-27,17
30,111,16
0,ACC,-922,-9,513
0,GYR,-4,-36,24
29,10F,32
0,ACC,-927,14,573
0,GYR,-14,-11,16
8,TIM,17562800
0,DTE,041216
0,LAT,45547959
0,LNG,9335307
0,ALT,16200
0,SPD,34.27
0,SAT,5
0,ACC,-913,18,528
0,GYR,-9,-22,17
111,104,0
0,ACC,-922,6,548
0,GYR,1,-27,17
30,111,16
0,ACC,-922,-9,513
0,GYR,-4,-36,24
29,10F,32
0,ACC,-927,14,573
0,GYR,-14,-11,16
8,TIM,17563000
0,DTE,041216
0,LAT,45547743
0,LNG,9335305
0,ALT,16200
0,SPD,41.83
0,SAT,5
0,ACC,-913,18,528
0,GYR,-9,-22,17
111,104,0
0,ACC,-922,6,548
0,GYR,1,-27,17
30,111,16
0,ACC,-922,-9,513
0,GYR,-4,-36,24
29,10F,32
0,ACC,-927,14,573
0,GYR,-14,-11,16
8,TIM,17563200
0,DTE,041216
0,LAT,45547513
0,LNG,9335309
0,ALT,16200
0,SPD,44.75
0,SAT,5
0,ACC,-913,18,528
0,GYR,-9,-22,17
111,104,0
0,ACC,-922,6,548
0,GYR,1,-27,17
30,111,16
0,ACC,-922,-9,513
0,GYR,-4,-36,24
29,10F,32
0,ACC,-927,14,573
0,GYR,-14,-11,16
8,TIM,17563400
0,DTE,041216
0,LAT,45547286
0,LNG,9335303
0,ALT,16200
0,SPD,45.22
0,SAT,5
0,ACC,-913,18,528
0,GYR,-9,-22,17
111,104,0
0,ACC,-922,6,548
0,GYR,1,-27,17
30,111,16
0,ACC,-922,-9,513
0,GYR,-4,-36,24
29,10F,32
0,ACC,-927,14,573
0,GYR,-14,-11,16
8,TIM,17563600
0,DTE,041216
0,LAT,45547067
0,LNG,9335297
0,ALT,16200
0,SPD,43.52
0,SAT,5
0,ACC,-913,18,528
0,GYR,-9,-22,17
111,104,0
0,ACC,-922,6,548
0,GYR,1,-27,17
30,111,16
0,ACC,-922,-9,513
0,GYR,-4,-36,24
29,10F,32
0,ACC,-927,14,573
0,GYR,-14,-11,16
8,TIM,17563800
0,DTE,041216
0,LAT,45546853
0,LNG,9335287
0,ALT,16200
0,SPD,42.01
0,SAT,5
0,ACC,-913,18,528
0,GYR,-9,-22,17
111,104,0
0,ACC,-922,6,548
0,GYR,1,-27,17
30,111,16
0,ACC,-922,-9,513
0,GYR,-4,-36,24
29,10F,32
0,ACC,-927,14,573
0,GYR,-14,-11,16
8,TIM,17564000
0,DTE,041216
0,LAT,45546655
0,LNG,9335278
0,ALT,16200
0,SPD,38.99
0,SAT,5
0,ACC,-913,18,528
0,GYR,-9,-22,17
111,104,0
0,ACC,-922,6,548
0,GYR,1,-27,17
30,111,16
0,ACC,-922,-9,513
0,GYR,-4,-36,24
29,10F,32
0,ACC,-927,14,573
0,GYR,-14,-11,16
8,TIM,17564200
0,DTE,041216
0,LAT,45546478
0,LNG,9335269
0,ALT,16200
0,SPD,34.85
0,SAT,5
0,ACC,-913,18,528
0,GYR,-9,-22,17
111,104,0
0,ACC,-922,6,548
0,GYR,1,-27,17
30,111,16
0,ACC,-922,-9,513
0,GYR,-4,-36,24
29,10F,32
0,ACC,-927,14,573
0,GYR,-14,-11,16
8,TIM,17564400
0,DTE,041216
0,LAT,45546328
0,LNG,9335203
0,ALT,16200
0,SPD,32.04
0,SAT,5
0,ACC,-913,18,528
0,GYR,-9,-22,17
111,104,0
0,ACC,-922,6,548
0,GYR,1,-27,17
30,111,16
0,ACC,-922,-9,513
0,GYR,-4,-36,24
29,10F,32
0,ACC,-927,14,573
0,GYR,-14,-11,16
8,TIM,17564600
0,DTE,041216
0,LAT,45546171
0,LNG,9335203
0,ALT,16200
0,SPD,32.69
0,SAT,5
0,ACC,-913,18,528
0,GYR,-9,-22,17
111,104,0
0,ACC,-922,6,548
0,GYR,1,-27,17
30,111,16
0,ACC,-922,-9,513
0,GYR,-4,-36,24
29,10F,32
0,ACC,-927,14,573
0,GYR,-14,-11,16
8,TIM,17564800
0,DTE,041216
0,LAT,45546011
0,LNG,9335316
0,ALT,16200
0,SPD,36.36
0,SAT,5
0,ACC,-913,18,528
0,GYR,-9,-22,17
111,104,0
0,ACC,-922,6,548
0,GYR,1,-27,17
30,111,16
0,ACC,-922,-9,513
0,GYR,-4,-36,24
29,10F,32
0,ACC,-927,14,573
0,GYR,-14,-11,16
8,TIM,17565000
0,DTE,041216
0,LAT,45545816
0,LNG,9335435
0,ALT,16200
0,SPD,42.01
0,SAT,5
0,ACC,-913,18,528
0,GYR,-9,-22,17
111,104,0
0,ACC,-922,6,548
0,GYR,1,-27,17
30,111,16
0,ACC,-922,-9,513
0,GYR,-4,-36,24
29,10F,32
0,ACC,-927,14,573
0,GYR,-14,-11,16
8,TIM,17565200
0,DTE,041216
0,LAT,45545626
0,LNG,9335572
0,ALT,16200
0,SPD,43.49
0,SAT,5
0,ACC,-913,18,528
0,GYR,-9,-22,17
111,104,0
0,ACC,-922,6,548
0,GYR,1,-27,17
30,111,16
0,ACC,-922,-9,513
0,GYR,-4,-36,24
29,10F,32
0,ACC,-927,14,573
0,GYR,-14,-11,16
8,TIM,17565400
0,DTE,041216
0,LAT,45545447
0,LNG,9335745
0,ALT,16200
0,SPD,44.96
0,SAT,5
0,ACC,-913,18,528
0,GYR,-9,-22,17
111,104,0
0,ACC,-922,6,548
0,GYR,1,-27,17
30,111,16
0,ACC,-922,-9,513
0,GYR,-4,-36,24
29,10F,32
0,ACC,-927,14,573
0,GYR,-14,-11,16
8,TIM,17565600
0,DTE,041216
0,LAT,45545274
0,LNG,9335958
0,ALT,16200
0,SPD,46.58
0,SAT,5
0,ACC,-913,18,528
0,GYR,-9,-22,17
111,104,0
0,ACC,-922,6,548
0,GYR,1,-27,17
30,111,16
0,ACC,-922,-9,513
0,GYR,-4,-36,24
29,10F,32
0,ACC,-927,14,573
0,GYR,-14,-11,16
8,TIM,17565800
0,DTE,041216
0,LAT,45545116
0,LNG,9336224
0,ALT,16200
0,SPD,49.21
0,SAT,5
0,ACC,-913,18,528
0,GYR,-9,-22,17
111,104,0
0,ACC,-922,6,548
0,GYR,1,-27,17
30,111,16
0,ACC,-922,-9,513
0,GYR,-4,-36,24
29,10F,32
0,ACC,-927,14,573
0,GYR,-14,-11,16
8,TIM,17570000
0,DTE,041216
0,LAT,45545002
0,LNG,9336549
0,ALT,16200
0,SPD,51.59
0,SAT,5
0,ACC,-913,18,528
0,GYR,-9,-22,17
111,104,0
0,ACC,-922,6,548
0,GYR,1,-27,17
30,111,16
0,ACC,-922,-9,513
0,GYR,-4,-36,24
29,10F,32
0,ACC,-927,14,573
0,GYR,-14,-11,16
8,TIM,17570200
0,DTE,041216
0,LAT,45544907
0,LNG,9336897
0,ALT,16200
0,SPD,52.88
0,SAT,5
0,ACC,-913,18,528
0,GYR,-9,-22,17
111,104,0
0,ACC,-922,6,548
0,GYR,1,-27,17
30,111,16
0,ACC,-922,-9,513
0,GYR,-4,-36,24
29,10F,32
0,ACC,-927,14,573
0,GYR,-14,-11,16
8,TIM,17570400
0,DTE,041216
0,LAT,45544847
0,LNG,9337266
0,ALT,16200
0,SPD,53.53
0,SAT,5
0,ACC,-913,18,528
0,GYR,-9,-22,17
111,104,0
0,ACC,-922,6,548
0,GYR,1,-27,17
30,111,16
0,ACC,-922,-9,513
0,GYR,-4,-36,24
29,10F,32
0,ACC,-927,14,573
0,GYR,-14,-11,16
8,TIM,17570600
0,DTE,041216
0,LAT,45544803
0,LNG,9337655
0,ALT,16200
0,SPD,54.07
0,SAT,5
0,ACC,-913,18,528
0,GYR,-9,-22,17
111,104,0
0,ACC,-922,6,548
0,GYR,1,-27,17
30,111,16
0,ACC,-922,-9,513
0,GYR,-4,-36,24
29,10F,32
0,ACC,-927,14,573
0,GYR,-14,-11,16
8,TIM,17570800
0,DTE,041216
0,LAT,45544804
0,LNG,9338032
0,ALT,16200
0,SPD,50.98
0,SAT,5
0,ACC,-913,18,528
0,GYR,-9,-22,17
111,104,0
0,ACC,-922,6,548
0,GYR,1,-27,17
30,111,16
0,ACC,-922,-9,513
0,GYR,-4,-36,24
29,10F,32
0,ACC,-927,14,573
0,GYR,-14,-11,16
8,TIM,17571000
0,DTE,041216
0,LAT,45544783
0,LNG,9338364
0,ALT,16200
0,SPD,47.02
0,SAT,5
0,ACC,-913,18,528
0,GYR,-9,-22,17
111,104,0
0,ACC,-922,6,548
0,GYR,1,-27,17
30,111,16
0,ACC,-922,-9,513
0,GYR,-4,-36,24
29,10F,32
0,ACC,-927,14,573
0,GYR,-14,-11,16
8,TIM,17571200
0,DTE,041216
0,LAT,45544772
0,LNG,9338692
0,ALT,16200
0,SPD,44.78
0,SAT,5
0,ACC,-913,18,528
0,GYR,-9,-22,17
111,104,0
0,ACC,-922,6,548
0,GYR,1,-27,17
30,111,16
0,ACC,-922,-9,513
0,GYR,-4,-36,24
29,10F,32
0,ACC,-927,14,573
0,GYR,-14,-11,16
8,TIM,17571400
0,DTE,041216
0,LAT,45544756
0,LNG,9338958
0,ALT,16200
0,SPD,34.56
0,SAT,5
0,ACC,-913,18,528
0,GYR,-9,-22,17
111,104,0
0,ACC,-922,6,548
0,GYR,1,-27,17
30,111,16
0,ACC,-922,-9,513
0,GYR,-4,-36,24
29,10F,32
0,ACC,-927,14,573
0,GYR,-14,-11,16
8,TIM,17571600
0,DTE,041216
0,LAT,45544742
0,LNG,9339109
0,ALT,16200
0,SPD,17.75
0,SAT,5
0,ACC,-913,18,528
0,GYR,-9,-22,17
111,104,0
0,ACC,-922,6,548
0,GYR,1,-27,17
30,111,16
0,ACC,-922,-9,513
0,GYR,-4,-36,24
29,10F,32
0,ACC,-927,14,573
0,GYR,-14,-11,16
8,TIM,17571800
0,DTE,041216
0,LAT,45544711
0,LNG,9339232
0,ALT,16200
0,SPD,19.4
0,SAT,5
0,ACC,-913,18,528
0,GYR,-9,-22,17
111,104,0
0,ACC,-922,6,548
0,GYR,1,-27,17
30,111,16
0,ACC,-922,-9,513
0,GYR,-4,-36,24
29,10F,32
0,ACC,-927,14,573
0,GYR,-14,-11,16
8,TIM,17572000
0,DTE,041216
0,LAT,45544718
0,LNG,9339385
0,ALT,16200
0,SPD,22.03
0,SAT,5
0,ACC,-913,18,528
0,GYR,-9,-22,17
111,104,0
0,ACC,-922,6,548
0,GYR,1,-27,17
30,111,16
0,ACC,-922,-9,513
0,GYR,-4,-36,24
29,10F,32
0,ACC,-927,14,573
0,GYR,-14,-11,16
8,TIM,17572200
0,DTE,041216
0,LAT,45544779
0,LNG,9339530
0,ALT,16200
0,SPD,24.95
0,SAT,5
0,ACC,-913,18,528
0,GYR,-9,-22,17
111,104,0
0,ACC,-922,6,548
0,GYR,1,-27,17
30,111,16
0,ACC,-922,-9,513
0,GYR,-4,-36,24
29,10F,32
0,ACC,-927,14,573
0,GYR,-14,-11,16
8,TIM,17572400
0,DTE,041216
0,LAT,45544797
0,LNG,9339735
0,ALT,16200
0,SPD,29.48
0,SAT,5
0,ACC,-913,18,528
0,GYR,-9,-22,17
111,104,0
0,ACC,-922,6,548
0,GYR,1,-27,17
30,111,16
0,ACC,-922,-9,513
0,GYR,-4,-36,24
29,10F,32
0,ACC,-927,14,573
0,GYR,-14,-11,16
8,TIM,17572600
0,DTE,041216
0,LAT,45544812
0,LNG,9339972
0,ALT,16200
0,SPD,35.28
0,SAT,5
0,ACC,-913,18,528
0,GYR,-9,-22,17
111,104,0
0,ACC,-922,6,548
0,GYR,1,-27,17
30,111,16
0,ACC,-922,-9,513
0,GYR,-4,-36,24
29,10F,32
0,ACC,-927,14,573
0,GYR,-14,-11,16
8,TIM,17572800
0,DTE,041216
0,LAT,45544834
0,LNG,9340257
0,ALT,16200
0,SPD,39.53
0,SAT,5
0,ACC,-913,18,528
0,GYR,-9,-22,17
111,104,0
0,ACC,-922,6,548
0,GYR,1,-27,17
30,111,16
0,ACC,-922,-9,513
0,GYR,-4,-36,24
29,10F,32
0,ACC,-927,14,573
0,GYR,-14,-11,16
8,TIM,17573000
0,DTE,041216
0,LAT,45544849
0,LNG,9340559
0,ALT,16200
0,SPD,42.12
0,SAT,5
0,ACC,-913,18,528
0,GYR,-9,-22,17
111,104,0
0,ACC,-922,6,548
0,GYR,1,-27,17
30,111,16
0,ACC,-922,-9,513
0,GYR,-4,-36,24
29,10F,32
0,ACC,-927,14,573
0,GYR,-14,-11,16
8,TIM,17573200
0,DTE,041216
0,LAT,45544863
0,LNG,9340845
0,ALT,16200
0,SPD,38.74
0,SAT,5
0,ACC,-913,18,528
0,GYR,-9,-22,17
111,104,0
0,ACC,-922,6,548
0,GYR,1,-27,17
30,111,16
0,ACC,-922,-9,513
0,GYR,-4,-36,24
29,10F,32
0,ACC,-927,14,573
0,GYR,-14,-11,16
8,TIM,17573400
0,DTE,041216
0,LAT,45544882
0,LNG,9341089
0,ALT,16200
0,SPD,34.96
0,SAT,5
0,ACC,-913,18,528
0,GYR,-9,-22,17
111,104,0
0,ACC,-922,6,548
0,GYR,1,-27,17
30,111,16
0,ACC,-922,-9,513
0,GYR,-4,-36,24
29,10F,32
0,ACC,-927,14,573
0,GYR,-14,-11,16
8,TIM,17573600
0,DTE,041216
0,LAT,45544898
0,LNG,9341298
0,ALT,16200
0,SPD,28.33
0,SAT,5
0,ACC,-913,18,528
0,GYR,-9,-22,17
111,104,0
0,ACC,-922,6,548
0,GYR,1,-27,17
30,111,16
0,ACC,-922,-9,513
0,GYR,-4,-36,24
29,10F,32
0,ACC,-927,14,573
0,GYR,-14,-11,16
8,TIM,17573800
0,DTE,041216
0,LAT,45544910
0,LNG,9341465
0,ALT,16200
0,SPD,23.98
0,SAT,5
0,ACC,-913,18,528
0,GYR,-9,-22,17
111,104,0
0,ACC,-922,6,548
0,GYR,1,-27,17
30,111,16
0,ACC,-922,-9,513
0,GYR,-4,-36,24
29,10F,32
0,ACC,-927,14,573
0,GYR,-14,-11,16
8,TIM,17574000
0,DTE,041216
0,LAT,45544920
0,LNG,9341630
0,ALT,16200
0,SPD,22.46
0,SAT,5
0,ACC,-913,18,528
0,GYR,-9,-22,17
111,104,0
0,ACC,-922,6,548
0,GYR,1,-27,17
30,111,16
0,ACC,-922,-9,513
0,GYR,-4,-36,24
29,10F,32
0,ACC,-927,14,573
0,GYR,-14,-11,16
8,TIM,17574200
0,DTE,041216
0,LAT,45544922
0,LNG,9341803
0,ALT,16200
0,SPD,24.41
0,SAT,5
0,ACC,-913,18,528
0,GYR,-9,-22,17
111,104,0
0,ACC,-922,6,548
0,GYR,1,-27,17
30,111,16
0,ACC,-922,-9,513
0,GYR,-4,-36,24
29,10F,32
0,ACC,-927,14,573
0,GYR,-14,-11,16
8,TIM,17574400
0,DTE,041216
0,LAT,45544927
0,LNG,9341959
0,ALT,16200
0,SPD,21.17
0,SAT,5
0,ACC,-913,18,528
0,GYR,-9,-22,17
111,104,0
0,ACC,-922,6,548
0,GYR,1,-27,17
30,111,16
0,ACC,-922,-9,513
0,GYR,-4,-36,24
29,10F,32
0,ACC,-927,14,573
0,GYR,-14,-11,16
8,TIM,17574600
0,DTE,041216
0,LAT,45544848
0,LNG,9342045
0,ALT,16200
0,SPD,20.34
0,SAT,5
0,ACC,-913,18,528
0,GYR,-9,-22,17
111,104,0
0,ACC,-922,6,548
0,GYR,1,-27,17
30,111,16
0,ACC,-922,-9,513
0,GYR,-4,-36,24
29,10F,32
0,ACC,-927,14,573
0,GYR,-14,-11,16
8,TIM,17574800
0,DTE,041216
0,LAT,45544717
0,LNG,9342083
0,ALT,16200
0,SPD,27.5
0,SAT,5
0,ACC,-913,18,528
0,GYR,-9,-22,17
111,104,0
0,ACC,-922,6,548
0,GYR,1,-27,17
30,111,16
0,ACC,-922,-9,513
0,GYR,-4,-36,24
29,10F,32
0,ACC,-927,14,573
0,GYR,-14,-11,16
8,TIM,17575000
0,DTE,041216
0,LAT,45544559
0,LNG,9342106
0,ALT,16200
0,SPD,32.22
0,SAT,5
0,ACC,-913,18,528
0,GYR,-9,-22,17
111,104,0
0,ACC,-922,6,548
0,GYR,1,-27,17
30,111,16
0,ACC,-922,-9,513
0,GYR,-4,-36,24
29,10F,32
0,ACC,-927,14,573
0,GYR,-14,-11,16
8,TIM,17575200
0,DTE,041216
0,LAT,45544385
0,LNG,9342130
0,ALT,16200
0,SPD,33.16
0,SAT,5
0,ACC,-913,18,528
0,GYR,-9,-22,17
111,104,0
0,ACC,-922,6,548
0,GYR,1,-27,17
30,111,16
0,ACC,-922,-9,513
0,GYR,-4,-36,24
29,10F,32
0,ACC,-927,14,573
0,GYR,-14,-11,16
8,TIM,17575400
0,DTE,041216
0,LAT,45544218
0,LNG,9342159
0,ALT,16200
0,SPD,31.68
0,SAT,5
0,ACC,-913,18,528
0,GYR,-9,-22,17
111,104,0
0,ACC,-922,6,548
0,GYR,1,-27,17
30,111,16
0,ACC,-922,-9,513
0,GYR,-4,-36,24
29,10F,32
0,ACC,-927,14,573
0,GYR,-14,-11,16
8,TIM,17575600
0,DTE,041216
0,LAT,45544050
0,LNG,9342179
0,ALT,16200
0,SPD,32.04
0,SAT,5
0,ACC,-913,18,528
0,GYR,-9,-22,17
111,104,0
0,ACC,-922,6,548
0,GYR,1,-27,17
30,111,16
0,ACC,-922,-9,513
0,GYR,-4,-36,24
29,10F,32
0,ACC,-927,14,573
0,GYR,-14,-11,16
8,TIM,17575800
0,DTE,041216
0,LAT,45543903
0,LNG,9342209
0,ALT,16200
0,SPD,29.84
0,SAT,5
0,ACC,-913,18,528
0,GYR,-9,-22,17
111,104,0
0,ACC,-922,6,548
0,GYR,1,-27,17
30,111,16
0,ACC,-922,-9,513
0,GYR,-4,-36,24
29,10F,32
0,ACC,-927,14,573
0,GYR,-14,-11,16
8,TIM,17580000
0,DTE,041216
0,LAT,45543775
0,LNG,9342221
0,ALT,16200
0,SPD,23.72
0,SAT,5
0,ACC,-913,18,528
0,GYR,-9,-22,17
111,104,0
0,ACC,-922,6,548
0,GYR,1,-27,17
30,111,16
0,ACC,-922,-9,513
0,GYR,-4,-36,24
29,10F,32
0,ACC,-927,14,573
0,GYR,-14,-11,16
8,TIM,17580200
0,DTE,041216
0,LAT,45543686
0,LNG,9342206
0,ALT,16200
0,SPD,17.03
0,SAT,5
0,ACC,-913,18,528
0,GYR,-9,-22,17
111,104,0
0,ACC,-922,6,548
0,GYR,1,-27,17
30,111,16
0,ACC,-922,-9,513
0,GYR,-4,-36,24
29,10F,32
0,ACC,-927,14,573
0,GYR,-14,-11,16
8,TIM,17580400
0,DTE,041216
0,LAT,45543657
0,LNG,9342141
0,ALT,16200
0,SPD,8.71
0,SAT,5
0,ACC,-913,18,528
0,GYR,-9,-22,17
111,104,0
0,ACC,-922,6,548
0,GYR,1,-27,17
30,111,16
0,ACC,-922,-9,513
0,GYR,-4,-36,24
29,10F,32
0,ACC,-927,14,573
0,GYR,-14,-11,16
8,TIM,17581400
0,DTE,041216
0,LAT,45543636
0,LNG,9342139
0,ALT,16200
0,SPD,3.53
0,SAT,5
0,ACC,-913,18,528
0,GYR,-9,-22,17
111,104,0
0,ACC,-922,6,548
0,GYR,1,-27,17
30,111,16
0,ACC,-922,-9,513
0,GYR,-4,-36,24
29,10F,32
0,ACC,-927,14,573
0,GYR,-14,-11,16
8,TIM,17581600
0,DTE,041216
0,LAT,45543624
0,LNG,9342127
0,ALT,16200
0,SPD,1.33
0,SAT,5
0,ACC,-913,18,528
0,GYR,-9,-22,17
111,104,0
0,ACC,-922,6,548
0,GYR,1,-27,17
30,111,16
0,ACC,-922,-9,513
0,GYR,-4,-36,24
29,10F,32
0,ACC,-927,14,573
0,GYR,-14,-11,16
8,TIM,17581800
0,DTE,041216
0,LAT,45543627
0,LNG,9342108
0,ALT,16200
0,SPD,1.58
0,SAT,5
0,ACC,-913,18,528
0,GYR,-9,-22,17
111,104,0
0,ACC,-922,6,548
0,GYR,1,-27,17
30,111,16
0,ACC,-922,-9,513
0,GYR,-4,-36,24
29,10F,32
0,ACC,-927,14,573
0,GYR,-14,-11,16
8,TIM,17582000
0,DTE,041216
0,LAT,45543637
0,LNG,9342112
0,ALT,16200
0,SPD,0.76
0,SAT,5
0,ACC,-913,18,528
0,GYR,-9,-22,17
111,104,0
0,ACC,-922,6,548
0,GYR,1,-27,17
30,111,16
0,ACC,-922,-9,513
0,GYR,-4,-36,24
29,10F,32
0,ACC,-927,14,573
0,GYR,-14,-11,16
8,TIM,17582200
0,DTE,041216
0,LAT,45543633
0,LNG,9342085
0,ALT,16200
0,SPD,3.31
0,SAT,5
0,ACC,-913,18,528
0,GYR,-9,-22,17
111,104,0
0,ACC,-922,6,548
0,GYR,1,-27,17
30,111,16
0,ACC,-922,-9,513
0,GYR,-4,-36,24
29,10F,32
0,ACC,-927,14,573
0,GYR,-14,-11,16
8,TIM,17582400
0,DTE,041216
0,LAT,45543631
0,LNG,9342063
0,ALT,16200
0,SPD,4.68
0,SAT,5
0,ACC,-913,18,528
0,GYR,-9,-22,17
111,104,0
0,ACC,-922,6,548
0,GYR,1,-27,17
30,111,16
0,ACC,-922,-9,513
0,GYR,-4,-36,24
29,10F,32
0,ACC,-927,14,573
0,GYR,-14,-11,16
8,TIM,17582600
0,DTE,041216
0,LAT,45543632
0,LNG,9342030
0,ALT,16200
0,SPD,3.17
0,SAT,5
0,ACC,-913,18,528
0,GYR,-9,-22,17
111,104,0
0,ACC,-922,6,548
0,GYR,1,-27,17
30,111,16
0,ACC,-922,-9,513
0,GYR,-4,-36,24
29,10F,32
0,ACC,-927,14,573
0,GYR,-14,-11,16
8,TIM,17582800
0,DTE,041216
0,LAT,45543633
0,LNG,9342011
0,ALT,16200
0,SPD,1.26
0,SAT,5
0,ACC,-913,18,528
0,GYR,-9,-22,17
111,104,0
0,ACC,-922,6,548
0,GYR,1,-27,17
30,111,16
0,ACC,-922,-9,513
0,GYR,-4,-36,24
29,10F,32
0,ACC,-927,14,573
0,GYR,-14,-11,16
8,TIM,17583600
0,DTE,041216
0,LAT,45543642
0,LNG,9342006
0,ALT,16200
0,SPD,0.0
0,SAT,5
